<svg xmlns="http://www.w3.org/2000/svg" width="414" height="580" viewBox="0 0 414 580">
    <defs>
        <linearGradient id="u445bkr6xa" x1="78.592%" x2="25.378%" y1="105.004%" y2="0%">
            <stop offset="0%" stop-color="#31CED0"/>
            <stop offset="100%" stop-color="#00797A"/>
        </linearGradient>
    </defs>
    <g fill="none" fill-rule="evenodd">
        <g>
            <g>
                <path fill="url(#u445bkr6xa)" d="M0 0L414 0 414 579 208.073 579 0 579z" transform="translate(0 -3326) translate(0 3326)"/>
                <g fill="#FFF" fill-rule="nonzero" opacity=".05" transform="translate(0 -3326) translate(0 3326) translate(0 419)">
                    <path d="M219.708 157.104v-8.526c-2.935 3.075-6.43 5.59-10.763 7.408-4.193 1.817-8.945 2.655-14.256 2.655-5.032 0-9.505-.838-13.698-2.515-4.053-1.678-7.548-4.054-10.483-6.99-2.935-3.074-5.171-6.568-6.709-10.901-1.537-4.193-2.376-8.946-2.376-14.257V71.284h23.062v48.64c0 5.172 1.398 9.225 4.193 12.44 2.796 3.215 6.71 4.752 11.741 4.752 5.731 0 10.204-1.677 13.698-5.031 3.494-3.355 5.172-7.967 5.172-14.117V71.284h23.342v85.82h-22.923zM258.984 157.104v-85.82h23.202v11.74c2.935-3.913 6.43-6.988 10.623-9.364 4.193-2.376 8.945-3.494 14.256-3.494v23.481c-8.526 0-14.815 2.237-18.869 6.57-3.913 4.472-5.87 10.343-5.87 17.89v39.137h-23.342v-.14zM396.8 139.772c-4.194 6.29-9.645 11.322-16.354 14.956-6.71 3.634-14.816 5.45-24.32 5.45-6.85 0-13.14-1.117-18.59-3.493-5.451-2.237-10.204-5.452-14.257-9.365-3.914-3.914-6.989-8.666-9.085-14.117-2.097-5.451-3.215-11.322-3.215-17.751 0-6.15 1.118-11.88 3.355-17.332 2.236-5.451 5.311-10.203 9.364-14.257 4.054-4.053 8.806-7.268 14.397-9.644 5.59-2.376 11.74-3.494 18.45-3.494 6.849 0 12.859 1.118 18.17 3.354 5.312 2.237 9.924 5.312 13.558 9.225 3.774 3.914 6.57 8.526 8.526 13.838 1.957 5.311 2.935 11.042 2.935 17.331 0 1.678 0 3.355-.14 5.172-.14 1.817-.14 2.795-.14 3.075l-65.552-.14c1.258 5.451 3.774 9.784 7.827 12.999 3.914 3.215 8.945 4.892 14.956 4.892 5.31 0 9.784-.978 13.418-3.075 3.774-2.097 6.849-4.752 9.364-8.247l17.332 10.623zm-40.535-50.038c-5.45 0-10.063 1.397-13.697 4.053-3.634 2.796-6.29 6.57-7.828 11.461h41.652c-1.257-5.171-3.773-9.085-7.547-11.74-3.634-2.516-7.827-3.774-12.58-3.774zM.405 74.079H23.607000000000003V159.899H.405zM96.01 64.295c-4.893 0-9.365.979-13.558 2.796-4.194 1.817-7.688 4.333-10.763 7.547-3.075 3.215-5.451 6.85-7.128 11.182-1.678 4.333-2.656 8.946-2.656 13.838 0 5.031.839 9.644 2.656 14.117 1.677 4.332 4.193 8.106 7.268 11.321s6.849 5.73 11.182 7.548c4.333 1.817 8.945 2.795 13.977 2.795 6.989 0 13.138-1.677 18.45-5.032 5.311-3.354 9.504-7.827 12.859-13.557l20.267 14.117c-5.591 9.085-12.58 16.073-20.966 21.105-8.386 5.032-18.45 7.548-30.19 7.548-8.806 0-16.913-1.538-24.46-4.613-7.549-3.075-14.118-7.268-19.569-12.719-5.451-5.451-9.784-11.74-12.999-19.009-3.075-7.268-4.752-15.095-4.752-23.482 0-8.386 1.537-16.213 4.752-23.342 3.075-7.128 7.408-13.418 12.86-18.869 5.45-5.311 11.88-9.504 19.288-12.58 7.408-3.074 15.514-4.612 24.32-4.612 11.322 0 21.246 2.656 30.051 6.989 8.386 4.193 19.289 11.042 25.998 26.836L132.35 88.476c-3.354-5.591-12.3-15.375-17.331-18.87-5.452-3.634-11.602-5.31-19.01-5.31z"/>
                    <g>
                        <path d="M0 0H10.623V29.632H0z" transform="translate(91.677 26.557)"/>
                    </g>
                    <circle cx="96.988" cy="15.235" r="15.235"/>
                    <g transform="translate(73.506 78.272)">
                        <ellipse cx="36.76" cy="11.601" rx="10.203" ry="10.343"/>
                        <ellipse cx="11.322" cy="11.601" rx="10.203" ry="10.343"/>
                    </g>
                </g>
            </g>
        </g>
    </g>
</svg>
