<svg xmlns="http://www.w3.org/2000/svg" width="12" height="10" viewBox="0 0 12 10">
    <g fill="none" fill-rule="evenodd">
        <g fill="#08928F" fill-rule="nonzero">
            <g>
                <g>
                    <g>
                        <path d="M5.397 8.695c-.54.54-1.418.54-1.958 0L.405 5.662c-.54-.54-.54-1.417 0-1.958.54-.54 1.418-.54 1.958 0l1.808 1.807c.136.137.357.137.494 0L9.56.618c.54-.54 1.417-.54 1.958 0 .26.26.405.611.405.979 0 .367-.146.719-.405.978l-6.12 6.12z" transform="translate(-559 -6122) translate(535 5831) translate(24 214) translate(0 77)"/>
                    </g>
                </g>
            </g>
        </g>
    </g>
</svg>
