<svg xmlns="http://www.w3.org/2000/svg" xmlns:xlink="http://www.w3.org/1999/xlink" width="100" height="100" viewBox="0 0 100 100">
    <defs>
        <linearGradient id="dhusaiwggc" x1="50%" x2="50%" y1="0%" y2="100%">
            <stop offset="0%" stop-color="#4ACBD7"/>
            <stop offset="100%" stop-color="#0992A2"/>
        </linearGradient>
        <filter id="miixh0xina" width="150.3%" height="150.3%" x="-25.1%" y="-12.6%" filterUnits="objectBoundingBox">
            <feOffset dy="10" in="SourceAlpha" result="shadowOffsetOuter1"/>
            <feGaussianBlur in="shadowOffsetOuter1" result="shadowBlurOuter1" stdDeviation="5"/>
            <feColorMatrix in="shadowBlurOuter1" values="0 0 0 0 0.165888064 0 0 0 0 0.364273896 0 0 0 0 0.511294158 0 0 0 0.1620684 0"/>
        </filter>
        <circle id="h9tv9j6o0b" cx="39.772" cy="39.772" r="39.772"/>
    </defs>
    <g fill="none" fill-rule="evenodd">
        <g>
            <g>
                <g transform="translate(-420 -2112) translate(430 2112)">
                    <use fill="#000" filter="url(#miixh0xina)" xlink:href="#h9tv9j6o0b"/>
                    <use fill="#FFF" xlink:href="#h9tv9j6o0b"/>
                </g>
                <g>
                    <path fill="#D0EFF1" d="M9 14.426h12.984c2.209 0 4 1.791 4 4V31.41c0 2.209-1.791 4-4 4H9c-2.21 0-4-1.791-4-4V18.426c0-2.209 1.79-4 4-4z" transform="translate(-420 -2112) translate(430 2112) translate(10.246 15) rotate(45 15.492 24.918)"/>
                    <path fill="url(#dhusaiwggc)" d="M21.754 8h26.098c2.21 0 4 1.79 4 4v26.098c0 2.21-1.79 4-4 4H21.754c-2.209 0-4-1.79-4-4V12c0-2.21 1.791-4 4-4z" transform="translate(-420 -2112) translate(430 2112) translate(10.246 15) rotate(45 34.803 25.05)"/>
                    <g fill="#005662">
                        <path d="M3.367 4.904c.392.048.785.073 1.18.073.385 0 .771-.024 1.158-.07 1.334-.16 2.555.763 2.766 2.09l.494 3.098-1.81.467-.814 6.392c-.032.25-.244.437-.496.437H3.247c-.251 0-.464-.187-.496-.436l-.813-6.334L0 10.095l.604-3.177C.85 5.624 2.06 4.742 3.367 4.904zM4.547 0c1.2 0 2.173.973 2.173 2.174 0 1.2-.973 2.174-2.174 2.174-1.2 0-2.174-.973-2.174-2.174C2.372.974 3.346 0 4.546 0zM13.802 4.904c.392.048.785.073 1.18.073.385 0 .77-.024 1.158-.07 1.334-.16 2.555.763 2.766 2.09l.493 3.098-1.81.467-.813 6.392c-.032.25-.244.437-.496.437h-2.598c-.252 0-.464-.187-.496-.436l-.814-6.334-1.937-.526.604-3.177c.246-1.294 1.455-2.176 2.763-2.014zM14.982 0c1.2 0 2.173.973 2.173 2.174 0 1.2-.973 2.174-2.174 2.174-1.2 0-2.174-.973-2.174-2.174 0-1.2.973-2.174 2.174-2.174z" transform="translate(-420 -2112) translate(430 2112) translate(10.246 15) translate(24.754 16)"/>
                    </g>
                </g>
            </g>
        </g>
    </g>
</svg>
